HDAT9800 Health Data Visualisation & Communication
…
```r
esoph_ca %>%
  group_by(alcgp, agegp) %>%
  summarise(ncases = sum(ncases),
            ncontrols = sum(ncontrols))
```

```
## `summarise()` has grouped output by 'alcgp'. You can override using the
## `.groups` argument.
```

```
## # A tibble: 24 × 4
## # Groups:   alcgp [4]
##    alcgp     agegp ncases ncontrols
##    <ord>     <ord>  <dbl>     <dbl>
##  1 0-39g/day 25-34      0        61
##  2 0-39g/day 35-44      1        89
##  3 0-39g/day 45-54      1        78
##  4 0-39g/day 55-64     12        89
##  5 0-39g/day 65-74     11        71
##  6 0-39g/day 75+        4        27
##  7 40-79     25-34      0        45
##  8 40-79     35-44      4        80
##  9 40-79     45-54     20        81
## 10 40-79     55-64     22        84
## # … with 14 more rows
```
…
```
## `summarise()` has grouped output by 'alcgp'. You can override using the
## `.groups` argument.
```

```
## # A tibble: 48 × 4
## # Groups:   alcgp [4]
##    alcgp     agegp arm       nsubjects
##    <ord>     <ord> <chr>         <dbl>
##  1 0-39g/day 25-34 ncases            0
##  2 0-39g/day 25-34 ncontrols        61
##  3 0-39g/day 35-44 ncases            1
##  4 0-39g/day 35-44 ncontrols        89
##  5 0-39g/day 45-54 ncases            1
##  6 0-39g/day 45-54 ncontrols        78
##  7 0-39g/day 55-64 ncases           12
##  8 0-39g/day 55-64 ncontrols        89
##  9 0-39g/day 65-74 ncases           11
## 10 0-39g/day 65-74 ncontrols        71
## # … with 38 more rows
```
…
